{
  "colors": [
    {
      "color": {
        "color-space": "srgb",
        "components": {
          "alpha": "1.000",
          "blue": "0x3F",
          "green": "0x3F",
          "red": "0xEE"
        }
      },
      "idiom": "universal"
    }
  ],
  "info": {
    "author": "xcode",
    "version": 1
  }
}
